{
    "PRESET_TITLE": "Kick",
    "SETTINGS": {
			"DESIGN_HEADER_BACKGROUND_COLOR": "#2b323c",
			"DESIGN_NAVIGATION_BACKGROUND_COLOR": "#262d37",
			"DESIGN_NAVIGATION_FONT_COLOR": "#ffffff",
			"DESIGN_BODY_BACKGROUND_COLOR": "#2b323c",
			"DESIGN_WRAPPER_BACKGROUND_COLOR": "#2b323c",
			"DESIGN_FOOTER_BACKGROUND_COLOR": "#262d37",
			"DESIGN_BOX_BACKGROUND_COLOR": "#2b323c",
			"DESIGN_BORDER_COLOR": "#ffffff",
			"DESIGN_IMAGE_BACKGROUND_COLOR": "",
			"FONT_COLOR_PRIMARY": "#ffffff",
			"FONT_COLOR_HEADLINE": "#ffffff",
			"FONT_COLOR_LINK": "#ffffff",
			"LOGO_COLOR": "#333333",
			"BUTTON_PRIMARY_BACKGROUND_COLOR": "#4f535e",
			"BUTTON_PRIMARY_FONT_COLOR": "#ffffff",
			"BUTTON_DEFAULT_BACKGROUND_COLOR": "#4f535e",
			"BUTTON_DEFAULT_FONT_COLOR": "#ffffff",
			"PANEL_CALLOUT_COLOR": "#ffffff",
			"PANEL_WARNING_COLOR": "#ffffff",
			"PANEL_DANGER_COLOR": "#ffffff",
			"MODULE_RATING_COLOR": "#ffcc00",
			"FONT_FAMILY_BASE": "'Lato', sans-serif|https://fonts.googleapis.com/css?family=Lato:400,700&display=swap",
			"FONT_FAMILY_HEADLINE": "'Abel', sans-serif|https://fonts.googleapis.com/css?family=Abel:400,700&display=swap"
    }
}